<?xml version="1.0" encoding="utf-8"?>
<!-- Generator: Adobe Illustrator 23.0.0, SVG Export Plug-In . SVG Version: 6.00 Build 0)  -->
<svg version="1.1" id="Слой_1" xmlns="http://www.w3.org/2000/svg" xmlns:xlink="http://www.w3.org/1999/xlink" x="0px" y="0px"
	 viewBox="0 0 238.5 328.7" style="enable-background:new 0 0 238.5 328.7;" xml:space="preserve">
<style type="text/css">
	.st0{fill:#E5273C;}
	.st1{fill:#0E1218;}
	.st2{fill:#E6273C;}
</style>
<g>
	<path class="st0" d="M87.8,219c-0.4-0.6-0.7-1.2-1-1.7c-9-14.4-18-28.8-27-43.2c-5.4-8.7-10.9-17.3-16.2-26
		c-5.4-8.9-8.9-18.6-10.9-28.8c-1.2-6-1.7-12.1-1.5-18.2c0.6-20.9,7.3-39.6,20.9-55.6c7-8.2,15.1-15.1,24.5-20.5
		c8.2-4.7,17-7.8,26.2-9.7c3.5-0.7,7.1-1.1,10.7-1.6c1.8-0.2,3.6-0.2,5.4-0.3c0.8,0,1.7,0,2.5,0c2.8-0.1,5.5,0.1,8.2,0.5
		c3.7,0.5,7.3,1,10.9,1.8c15,3.4,28.4,10.1,39.7,20.6c9.9,9.1,17.7,19.8,23,32.3c2.8,6.7,4.7,13.6,5.8,20.7c0.7,5.1,1,10.2,0.9,15.3
		c-0.1,4.3-0.5,8.6-1.2,12.9c-1.7,10.7-5.3,20.7-10.9,30c-25.3,42.1-50.7,84.2-76.1,126.4c-0.4,0.6-0.7,1.1-1.1,1.7
		c-0.4-0.1-0.5-0.4-0.6-0.6c-2.3-3.7-4.5-7.3-6.8-11c-3.4-5.6-6.8-11.2-10.3-16.8c-0.2-0.2-0.3-0.5-0.5-0.7c-0.4-0.6-1-0.8-1.7-0.7
		c-2.3,0.3-4.7,0.6-7,0.9c-2.9,0.4-5.8,0.8-8.6,1.2c-10.7,1.7-21.1,4.4-30.9,9c-2.3,1.1-4.6,2.2-6.5,3.9c-0.5,0.4-1,0.8-1.4,1.4
		c0.7,0.6,1.4,1.2,2.1,1.7c2.5,1.9,5.3,3.3,8.2,4.5c5.8,2.4,11.7,4.2,17.8,5.6c5.8,1.4,11.7,2.4,17.6,3.1c3.6,0.4,7.1,0.8,10.7,1
		c6.4,0.5,12.8,0.7,19.2,0.7c3.9,0,7.9-0.1,11.8-0.3c5.8-0.3,11.6-0.8,17.3-1.7c8.9-1.3,17.8-3,26.4-5.8c4.2-1.4,8.3-3,12.2-5.1
		c1.9-1,3.6-2.2,5.1-3.7c0.1-0.1,0.2-0.2,0.3-0.4c-0.2-0.3-0.4-0.4-0.7-0.6c-5.3-3.6-11-6.2-17-8.2c-5.6-1.9-11.4-3.3-17.2-4.6
		c-0.9-0.2-1.9-0.4-2.8-0.6c-0.2,0-0.4,0-0.6-0.2c0-0.3,0.2-0.5,0.3-0.7c4.8-7.7,9.6-15.4,14.4-23.1c0.5-0.9,1.2-1.1,2.1-0.9
		c7.7,1.8,15.3,4.1,22.5,7.3c4.6,2.1,9.1,4.5,13.2,7.5c3.4,2.6,6.5,5.5,8.9,9c2.6,3.7,4.3,7.8,4.8,12.3c0.7,5.7-0.5,11-3.2,15.9
		c-2,3.5-4.6,6.4-7.6,9c-4.9,4.3-10.4,7.5-16.3,10.1c-5.7,2.5-11.6,4.4-17.6,6c-6.5,1.7-13.1,3.1-19.8,4.1c-3.6,0.5-7.2,1-10.8,1.3
		c-5,0.5-10,0.8-15,1.1c-2.4,0.2-4.7,0.2-7.1,0.2c-4.3,0-8.7,0-13,0c-0.9,0-1.7-0.2-2.5-0.3c-1.9-0.1-3.7-0.1-5.6-0.2
		c-3.6-0.2-7.2-0.5-10.8-0.9c-4.2-0.4-8.3-0.9-12.5-1.6c-10.7-1.7-21.3-4.1-31.5-8c-5.3-2.1-10.4-4.5-15.1-7.6
		c-4-2.6-7.6-5.7-10.5-9.4c-3.1-3.9-5.1-8.3-5.8-13.3c-0.7-5.5,0.3-10.7,3-15.5c2.4-4.4,5.7-8,9.6-11.1c4.1-3.3,8.7-5.9,13.4-8.2
		c7.1-3.5,14.4-6,22.1-7.8c5.5-1.4,11.1-2.4,16.7-3.2C84.5,219.5,86.1,219.2,87.8,219z"/>
	<path class="st1" d="M167.4,147.9c-0.3,0.1-0.6,0.1-0.9,0.1c-6.6,0-13.3,0-19.9,0c-0.7,0-1-0.2-1.3-0.8c-3.3-6.1-6.6-12.1-10-18.2
		c-2.3-4.1-4.6-8.3-6.8-12.4c-0.2-0.4-0.5-0.6-1-0.6c-8.1,0-16.2,0-24.3,0c-0.1,0-0.2,0-0.3,0c-0.3,0-0.5,0.1-0.5,0.4
		c0,0.2,0,0.4,0,0.6c0,10,0,19.9,0,29.9c0,1.1,0.1,1-1,1c-5.7,0-11.4,0-17.1,0c-0.2,0-0.4,0-0.6,0c-0.3,0-0.4-0.1-0.4-0.4
		c0-0.2,0-0.4,0-0.6c0-28.3,0-56.6,0-84.9c0-1-0.1-0.9,0.9-0.9c15.8,0,31.5,0,47.3,0c4.5,0,8.9,0.5,13.1,1.7
		c4.8,1.4,9.1,3.8,12.6,7.4c4,4.1,6.5,9,7.2,14.7c0.7,5.3-0.1,10.4-2.6,15.1c-1.9,3.7-4.7,6.7-8.1,9.1c-1.9,1.3-3.8,2.5-5.9,3.4
		c0,0-0.1,0-0.1,0.1c-0.6,0.3-0.6,0.3-0.3,0.8c1,1.7,1.9,3.3,2.9,5c5.6,9.6,11.1,19.2,16.7,28.7
		C167.3,147.5,167.4,147.7,167.4,147.9z"/>
	<path class="st2" d="M118.9,100c-5.1,0-10.2,0-15.3,0c-0.2,0-0.3,0-0.5,0c-0.8,0-0.8,0-0.8-0.8c0-0.1,0-0.1,0-0.2
		c0-7,0-13.9,0-20.9c0-0.1,0-0.2,0-0.3c0-0.6,0-0.6,0.6-0.6c2.7,0,5.5,0,8.2,0c7.3,0,14.6,0,21.8,0c2,0,4.1,0.2,5.9,1.1
		c3.9,1.9,6.4,5,6.6,9.4c0.3,4.8-1.8,8.3-5.9,10.7c-1.9,1.1-3.9,1.5-6,1.5C128.7,99.9,123.8,100,118.9,100z"/>
</g>
</svg>
