<?xml version="1.0" encoding="utf-8"?>
<!-- Generator: Adobe Illustrator 23.0.0, SVG Export Plug-In . SVG Version: 6.00 Build 0)  -->
<svg version="1.1" id="Слой_1" xmlns="http://www.w3.org/2000/svg" xmlns:xlink="http://www.w3.org/1999/xlink" x="0px" y="0px"
	 viewBox="0 0 692.5 692.5" style="enable-background:new 0 0 692.5 692.5;" xml:space="preserve">
<style type="text/css">
	.st0{fill:#FFFFFF;}
</style>
<g>
	<path class="st0" d="M0,0c230.8,0,461.6,0,692.5,0c0,230.8,0,461.6,0,692.5c-230.8,0-461.6,0-692.5,0C0,461.6,0,230.8,0,0z
		 M278.5,338.8c-0.5-0.3-0.7-0.4-0.8-0.5c-3.5-3.2-7.5-4-11.8-2.1c-4.4,2-6.4,5.6-6.4,10.4c0,6.9-0.2,13.8,0.1,20.8
		c0.1,2.3,1.2,4.7,2.2,6.8c0.5,1.1,0.9,1.7,0.2,2.8c-9.1,16.9-18,33.9-27.2,50.9c-5.7,10.5-14.5,16.3-26.5,17.3
		c-9.8,0.8-19.7,1.5-29.5,2.2c-14.8,1.1-29.6,2.2-44.4,3.4c-4.9,0.4-9.8,0.7-14.5,1.9c-18.8,5-30.7,23.6-27.8,43.1
		c2.7,18.8,19.3,33,38.5,32.7c6-0.1,12.1-0.6,18.1-1c16.4-1.1,32.8-2.2,49.2-3.2c15-1,30-1.5,44.9-3.1c27.6-2.8,50.2-15.5,67-37.5
		c13.3-17.3,25.9-35.1,38.8-52.7c0.6-0.8,1.2-1.6,1.8-2.4c0.5,0.6,0.9,1.1,1.3,1.5c15.1,18,30,36.1,45.3,54
		c9.9,11.6,17.8,24.1,22.6,38.7c10.5,32.5,21.3,64.9,31.9,97.4c5.4,16.6,16.7,26.1,34,28.4c25,3.3,46.9-19.4,42.8-44.4
		c-3.7-22.3-7.4-44.6-11-66.9c-4.7-29-14.5-56.1-29.9-81.1c-13.9-22.6-28.1-45.1-42.2-67.6c-2.4-3.8-4.8-7.7-7.3-11.6
		c4.5-2.8,5.6-6.9,5.4-11.8c-0.2-5.5-0.2-11,0-16.4c0.2-5.2-1.2-9.5-6.1-12.2c4.4-20.3,8.8-40.4,13.2-60.9c0.8,0.6,1.3,0.9,1.9,1.4
		c7.4,6,14.7,12.1,22.2,18c16.1,12.7,33.9,15.6,53.3,8.9c7.1-2.5,13.9-5.5,20.9-8.3c15.5-6.2,31.1-12.2,46.5-18.7
		c16.5-6.9,24.6-25.6,19-42.6c-5.6-17-23.2-26.9-40.7-22.8c-17.1,4.1-34.2,8.5-51.3,12.8c-4.5,1.1-8.2,0.1-11.5-3.1
		c-3.7-3.7-7.4-7.3-11-11c-10.3-10.3-21.5-19.4-33.9-27c-30.7-18.9-64.5-26.8-100.1-27.9c-15.7-0.5-31.2,1.3-46.7,3.5
		c-19.7,2.9-39.5,5.7-59.2,8.6c-19.8,2.9-34.5,13.2-42.8,31.5c-10.1,22.4-19.7,45.1-29.1,67.8c-5.8,13.9-0.9,30.6,10.9,39.7
		c16.7,12.9,40.2,8.4,51.2-9.8c9-14.9,17.9-29.7,26.7-44.7c2.5-4.2,6-6.4,10.9-6.6c4.7-0.2,9.4-0.5,14-0.8c0.2,0,0.5,0.1,0.9,0.2
		C294.4,276.1,286.5,307.4,278.5,338.8z M410.8,21.6c-35.7,0-64.7,29.1-64.8,64.8c0,35.8,29.1,64.9,64.9,64.9
		c35.7,0,64.9-29.2,64.9-64.9C475.7,50.6,446.6,21.6,410.8,21.6z M97.3,356.8c0,3.6,0,7.2,0,10.8c0.1,6.1,4.8,10.9,10.9,10.8
		c5.9,0,10.7-4.7,10.7-10.7c0.1-7.3,0.1-14.5,0-21.8c-0.1-6-4.8-10.7-10.7-10.7c-6,0-10.8,4.7-10.9,10.8
		C97.3,349.6,97.3,353.2,97.3,356.8z M151.4,356.7c0,3.5,0,7.1,0,10.6c0.1,6.3,4.7,11.1,10.8,11.1c6.1,0,10.8-4.7,10.8-11.1
		c0-7.1,0-14.1,0-21.2c0-6.3-4.8-11-10.9-11c-6,0-10.7,4.7-10.7,10.9C151.3,349.7,151.4,353.2,151.4,356.7z M205.4,356.8
		c0,3.6,0,7.2,0,10.8c0.1,6.1,4.9,10.8,10.9,10.8c5.9,0,10.7-4.7,10.7-10.7c0.1-7.3,0.1-14.5,0-21.8c-0.1-6-4.8-10.7-10.7-10.7
		c-6,0-10.8,4.7-10.8,10.8C205.4,349.6,205.4,353.2,205.4,356.8z M497.4,356.9c0-3.6,0-7.2,0-10.8c-0.1-6.2-4.8-10.9-10.8-10.8
		c-6,0-10.7,4.7-10.8,10.9c-0.1,7.1-0.1,14.3,0,21.4c0,6.2,4.7,10.9,10.7,11c6.1,0,10.8-4.7,10.9-11
		C497.4,363.9,497.4,360.4,497.4,356.9z M529.8,356.7c0,3.6,0,7.2,0,10.8c0.1,6.2,4.8,10.9,10.7,10.9c6,0,10.8-4.7,10.8-10.8
		c0.1-7.2,0.1-14.4,0-21.6c-0.1-6.1-4.8-10.8-10.9-10.8c-6,0-10.7,4.7-10.7,10.9C529.8,349.7,529.8,353.2,529.8,356.7z M583.9,356.8
		c0,3.6,0,7.2,0,10.8c0.1,6.1,4.9,10.8,10.9,10.8c5.9,0,10.7-4.7,10.7-10.7c0.1-7.3,0.1-14.5,0-21.8c-0.1-6-4.8-10.7-10.7-10.7
		c-6,0-10.8,4.7-10.8,10.8C583.9,349.6,583.9,353.2,583.9,356.8z"/>
	<path d="M278.5,338.8c8-31.4,16-62.7,23.9-94c-0.4-0.1-0.6-0.3-0.9-0.2c-4.7,0.2-9.4,0.6-14,0.8c-4.9,0.2-8.3,2.4-10.9,6.6
		c-8.8,14.9-17.8,29.8-26.7,44.7c-11,18.2-34.4,22.6-51.2,9.8c-11.8-9.1-16.7-25.8-10.9-39.7c9.5-22.7,19-45.4,29.1-67.8
		c8.2-18.2,23-28.5,42.8-31.5c19.7-2.9,39.5-5.7,59.2-8.6c15.5-2.3,31-4,46.7-3.5c35.7,1.1,69.4,9,100.1,27.9
		c12.4,7.6,23.7,16.7,33.9,27c3.7,3.7,7.4,7.3,11,11c3.2,3.2,7,4.2,11.5,3.1c17.1-4.3,34.2-8.7,51.3-12.8
		c17.4-4.2,35.1,5.8,40.7,22.8c5.6,17-2.6,35.6-19,42.6c-15.4,6.5-31,12.5-46.5,18.7c-6.9,2.8-13.8,5.8-20.9,8.3
		c-19.3,6.8-37.2,3.8-53.3-8.9c-7.5-5.9-14.8-12-22.2-18c-0.5-0.4-1.1-0.8-1.9-1.4c-4.4,20.4-8.8,40.6-13.2,60.9
		c4.9,2.7,6.3,6.9,6.1,12.2c-0.2,5.5-0.2,11,0,16.4c0.2,4.9-1,9-5.4,11.8c2.5,4,4.9,7.8,7.3,11.6c14.1,22.5,28.3,45,42.2,67.6
		c15.4,25,25.2,52.2,29.9,81.1c3.6,22.3,7.3,44.6,11,66.9c4.1,24.9-17.8,47.7-42.8,44.4c-17.3-2.3-28.6-11.8-34-28.4
		c-10.6-32.5-21.4-64.9-31.9-97.4c-4.7-14.6-12.7-27.1-22.6-38.7c-15.3-17.9-30.2-36-45.3-54c-0.4-0.4-0.8-0.9-1.3-1.5
		c-0.7,0.9-1.3,1.6-1.8,2.4c-12.9,17.6-25.6,35.4-38.8,52.7c-16.9,22-39.4,34.7-67,37.5c-14.9,1.5-29.9,2.1-44.9,3.1
		c-16.4,1.1-32.8,2.2-49.2,3.2c-6,0.4-12.1,0.9-18.1,1c-19.2,0.3-35.8-13.9-38.5-32.7c-2.8-19.5,9-38.1,27.8-43.1
		c4.7-1.3,9.7-1.5,14.5-1.9c14.8-1.2,29.6-2.3,44.4-3.4c9.8-0.7,19.7-1.4,29.5-2.2c11.9-1,20.8-6.8,26.5-17.3
		c9.2-16.9,18.1-33.9,27.2-50.9c0.6-1.1,0.3-1.8-0.2-2.8c-1-2.1-2.1-4.5-2.2-6.8c-0.3-6.9-0.1-13.8-0.1-20.8c0-4.8,2-8.4,6.4-10.4
		c4.3-2,8.3-1.1,11.8,2.1C277.8,338.4,278,338.5,278.5,338.8z M360.5,176.9c-17.8-0.3-35.1,3.1-52.6,5.5c-14.6,2-29.1,4.3-43.6,6.2
		c-13.8,1.8-23.5,8.7-28.8,21.6c-3.2,7.8-6.6,15.5-9.9,23.2c-5.8,13.4-11.6,26.8-17.3,40.3c-4.1,9.6,3.1,19.3,13.4,18.3
		c4.6-0.5,7.7-3.1,10-7c8.8-14.8,17.7-29.5,26.5-44.3c5.4-9.1,13.2-14.9,23.7-16.4c6-0.9,12.1-0.9,18.1-1.3c16.5-1,33.1-2,49.6-2.9
		c6.3-0.3,11.3,4.1,11.6,10c0.4,6.2-4.1,11.1-10.6,11.6c-7.6,0.5-15.2,1-22.9,1.3c-2.1,0.1-2.9,0.8-3.4,2.8
		c-9.5,37.6-19.1,75.2-28.7,112.8c-0.4,1.4-0.9,2.9-1.6,4.2c-13.3,25-26.5,50.1-40,75.1c-9.3,17.2-23.8,27-43.2,28.8
		c-27,2.4-54,4.1-81,6.2c-7.5,0.6-13,4.3-15.5,11.5c-2.4,6.9-0.7,13.1,4.6,18.1c4.2,4,9.3,4.8,14.9,4.4c5.4-0.5,10.8-0.8,16.2-1.1
		c28.8-1.9,57.7-3.7,86.5-5.6c24.1-1.6,43.4-12.1,57.7-31.5c15.5-21,30.9-42.2,46.4-63.2c5-6.8,12.8-7,18.3-0.5
		c18.4,21.9,36.6,44,55.2,65.8c11.6,13.5,20.6,28.4,26.1,45.3c10.6,32.7,21.4,65.4,32.2,98c0.9,2.7,2.3,5.5,4.2,7.7
		c5.2,6,14,7.3,21.4,3.6c7-3.5,10.2-10.8,8.8-19.3c-3.3-19.9-6.7-39.8-9.8-59.7c-3.1-20-8.4-39.4-16.8-57.9
		c-6.1-13.4-14.1-25.8-21.9-38.2c-15.8-25.2-31.6-50.4-47.4-75.6c-1.9-3-2.7-6-2-9.4c8-36.7,16.1-73.4,23.8-110.2
		c1.9-9,11.6-12.7,18.9-6.5c11.9,10.1,24.1,19.7,36.2,29.5c10.3,8.3,21.6,10,33.9,5.2c7-2.7,13.9-5.5,20.8-8.3
		c14.6-5.8,29.1-11.6,43.7-17.5c9.3-3.8,11-16.1,3.1-22.3c-3.8-2.9-8-3.2-12.5-2.1c-16.8,4.2-33.6,8.5-50.5,12.6
		c-9.5,2.3-18.5,0.8-26.2-5.2c-5.2-4-9.7-8.8-14.3-13.5c-14.6-15-31.4-26.9-50.6-35.2C411.4,181.1,386.3,177.1,360.5,176.9z"/>
	<path d="M410.8,21.6c35.8,0,64.9,29,65,64.8c0,35.7-29.1,64.9-64.9,64.9c-35.7,0-64.9-29.2-64.9-64.9
		C346.1,50.7,375.1,21.7,410.8,21.6z M410.9,40.8c-25.1,0-45.6,20.4-45.7,45.6c-0.1,25.1,20.4,45.7,45.5,45.8
		c25.1,0.1,45.9-20.6,45.9-45.7C456.6,61.3,436.1,40.8,410.9,40.8z"/>
	<path d="M97.3,356.8c0-3.6,0-7.2,0-10.8c0.1-6.1,4.8-10.8,10.9-10.8c5.9,0,10.7,4.7,10.7,10.7c0.1,7.3,0.1,14.5,0,21.8
		c-0.1,6-4.8,10.7-10.7,10.7c-6,0-10.8-4.7-10.9-10.8C97.3,364,97.3,360.4,97.3,356.8z"/>
	<path d="M151.4,356.7c0-3.5,0-7.1,0-10.6c0.1-6.2,4.7-10.9,10.7-10.9c6.1,0,10.8,4.7,10.9,11c0,7.1,0,14.1,0,21.2
		c0,6.3-4.7,11.1-10.8,11.1c-6.1,0-10.7-4.8-10.8-11.1C151.4,363.8,151.4,360.3,151.4,356.7z"/>
	<path d="M205.4,356.8c0-3.6,0-7.2,0-10.8c0.1-6.1,4.8-10.8,10.8-10.8c5.9,0,10.7,4.7,10.7,10.7c0.1,7.3,0.1,14.5,0,21.8
		c-0.1,6-4.8,10.7-10.7,10.7c-6,0-10.8-4.7-10.9-10.8C205.4,364,205.4,360.4,205.4,356.8z"/>
	<path d="M497.4,356.9c0,3.5,0,7.1,0,10.6c-0.1,6.3-4.8,11-10.9,11c-6,0-10.7-4.8-10.7-11c0-7.1-0.1-14.3,0-21.4
		c0-6.2,4.8-10.9,10.8-10.9c6,0,10.7,4.7,10.8,10.8C497.4,349.7,497.4,353.3,497.4,356.9z"/>
	<path d="M529.8,356.7c0-3.5,0-7.1,0-10.6c0.1-6.2,4.7-10.9,10.7-10.9c6,0,10.8,4.7,10.9,10.8c0.1,7.2,0.1,14.4,0,21.6
		c-0.1,6.1-4.8,10.9-10.8,10.8c-6,0-10.7-4.8-10.7-10.9C529.8,363.9,529.8,360.3,529.8,356.7z"/>
	<path d="M583.9,356.8c0-3.6,0-7.2,0-10.8c0.1-6.1,4.8-10.8,10.8-10.8c5.9,0,10.7,4.7,10.7,10.7c0.1,7.3,0.1,14.5,0,21.8
		c-0.1,6-4.8,10.7-10.7,10.7c-6,0-10.8-4.7-10.9-10.8C583.9,364,583.9,360.4,583.9,356.8z"/>
	<path class="st0" d="M360.5,176.9c25.8,0.3,50.9,4.3,74.7,14.7c19.2,8.4,35.9,20.3,50.6,35.2c4.6,4.7,9.1,9.5,14.3,13.5
		c7.7,5.9,16.8,7.5,26.2,5.2c16.9-4.1,33.7-8.3,50.5-12.6c4.5-1.1,8.7-0.9,12.5,2.1c7.9,6.2,6.2,18.5-3.1,22.3
		c-14.5,5.9-29.1,11.7-43.7,17.5c-6.9,2.8-13.9,5.6-20.8,8.3c-12.3,4.8-23.6,3.1-33.9-5.2c-12.1-9.8-24.3-19.4-36.2-29.5
		c-7.2-6.1-17-2.5-18.9,6.5c-7.7,36.8-15.9,73.4-23.8,110.2c-0.7,3.4,0.1,6.5,2,9.4c15.8,25.2,31.6,50.4,47.4,75.6
		c7.8,12.4,15.8,24.8,21.9,38.2c8.4,18.5,13.7,37.8,16.8,57.9c3.1,19.9,6.5,39.8,9.8,59.7c1.4,8.5-1.8,15.8-8.8,19.3
		c-7.4,3.7-16.2,2.4-21.4-3.6c-1.9-2.2-3.3-4.9-4.2-7.7c-10.8-32.6-21.6-65.3-32.2-98c-5.5-17-14.6-31.8-26.1-45.3
		c-18.6-21.8-36.8-43.8-55.2-65.8c-5.4-6.5-13.3-6.3-18.3,0.5c-15.5,21.1-30.9,42.2-46.4,63.2c-14.3,19.4-33.6,29.9-57.7,31.5
		c-28.8,1.9-57.7,3.7-86.5,5.6c-5.4,0.4-10.8,0.7-16.2,1.1c-5.5,0.5-10.7-0.4-14.9-4.4c-5.3-5-7-11.2-4.6-18.1
		c2.5-7.2,7.9-10.9,15.5-11.5c27-2.1,54.1-3.8,81-6.2c19.4-1.7,34-11.6,43.2-28.8c13.5-25,26.7-50,40-75.1c0.7-1.3,1.3-2.8,1.6-4.2
		c9.6-37.6,19.2-75.2,28.7-112.8c0.5-2,1.3-2.7,3.4-2.8c7.6-0.3,15.3-0.8,22.9-1.3c6.5-0.4,10.9-5.4,10.6-11.6
		c-0.4-5.9-5.3-10.3-11.6-10c-16.6,0.9-33.1,1.9-49.6,2.9c-6,0.4-12.1,0.4-18.1,1.3c-10.5,1.5-18.3,7.3-23.7,16.4
		c-8.8,14.8-17.7,29.5-26.5,44.3c-2.3,3.9-5.5,6.5-10,7c-10.4,1.1-17.5-8.6-13.4-18.3c5.7-13.5,11.5-26.9,17.3-40.3
		c3.3-7.7,6.7-15.4,9.9-23.2c5.4-12.9,15.1-19.8,28.8-21.6c14.6-1.9,29.1-4.2,43.6-6.2C325.4,179.9,342.7,176.6,360.5,176.9z
		 M335.2,356.9c0-3.6,0-7.2,0-10.8c-0.1-6.2-4.8-10.9-10.8-10.9c-6,0-10.7,4.7-10.8,10.9c-0.1,7.1,0,14.3,0,21.4
		c0,6.2,4.7,10.9,10.7,11c6.1,0,10.8-4.7,10.9-11C335.2,363.9,335.2,360.4,335.2,356.9z M389.3,356.7c0-3.6,0.1-7.2,0-10.8
		c-0.1-6-4.8-10.7-10.7-10.7c-6,0-10.8,4.7-10.9,10.8c-0.1,7.2-0.1,14.4,0,21.6c0,6.1,4.8,10.9,10.8,10.9c6,0,10.7-4.7,10.8-10.9
		C389.3,363.9,389.3,360.3,389.3,356.7z"/>
	<path class="st0" d="M410.9,40.8c25.1,0,45.6,20.5,45.7,45.7c0,25.2-20.7,45.8-45.9,45.7c-25.1-0.1-45.6-20.8-45.5-45.8
		C365.3,61.2,385.8,40.8,410.9,40.8z"/>
	<path d="M335.2,356.9c0,3.5,0,7.1,0,10.6c-0.1,6.3-4.8,11-10.9,11c-6,0-10.7-4.8-10.7-11c0-7.1-0.1-14.3,0-21.4
		c0-6.2,4.8-10.9,10.8-10.9c6,0,10.7,4.7,10.8,10.9C335.2,349.7,335.2,353.3,335.2,356.9z"/>
	<path d="M389.3,356.7c0,3.6,0,7.2,0,10.8c-0.1,6.2-4.8,10.9-10.8,10.9c-6,0-10.8-4.7-10.8-10.9c-0.1-7.2-0.1-14.4,0-21.6
		c0.1-6.1,4.8-10.8,10.9-10.8c5.9,0,10.6,4.7,10.7,10.7C389.3,349.5,389.3,353.1,389.3,356.7z"/>
</g>
</svg>
